Australian Election Trends Analysis (2022–2025)
…
Spatial analysis

# Calculate vote share per electorate per year

electorate_votes <- first_prefs |>
  group_by(year, DivisionNm, PartyType) |>
  summarise(total_votes = sum(CalculationValue, na.rm = TRUE)) |>
  mutate(pct = total_votes / sum(total_votes) * 100) |>
  ungroup()

electorate_votes

# A tibble: 903 × 5
    year DivisionNm PartyType      total_votes   pct
   <dbl> <chr>      <chr>                <dbl> <dbl>
 1  2022 Adelaide   major_coal           36080  32.0
 2  2022 Adelaide   major_labour         45086  40.0
 3  2022 Adelaide   minor_or_indep       31598  28.0
 4  2022 Aston      major_coal           42260  43.1
 5  2022 Aston      major_labour         31949  32.5
 6  2022 Aston      minor_or_indep       23951  24.4
 7  2022 Ballarat   major_coal           26142  27.1
 8  2022 Ballarat   major_labour         43171  44.7
 9  2022 Ballarat   minor_or_indep       27187  28.2
10  2022 Banks      major_coal           41622  45.2
# ℹ 893 more rows
…
# Save processed data
write_csv(electorate_change, "data/electorate_change.csv")

electorate_change

# A tibble: 456 × 6
   DivisionNm PartyType      pct_2022 pct_2025 pct_change trend_dir
   <chr>      <chr>             <dbl>    <dbl>      <dbl> <chr>    
 1 Adelaide   major_coal         32.0     24.2     -7.83  decrease 
 2 Adelaide   major_labour       40.0     46.5      6.50  increase 
 3 Adelaide   minor_or_indep     28.0     29.3      1.33  increase 
 4 Aston      major_coal         43.1     37.7     -5.38  decrease 
 5 Aston      major_labour       32.5     37.3      4.71  increase 
 6 Aston      minor_or_indep     24.4     25.1      0.672 increase 
 7 Ballarat   major_coal         27.1     28.6      1.50  increase 
 8 Ballarat   major_labour       44.7     42.4     -2.39  decrease 
 9 Ballarat   minor_or_indep     28.2     29.1      0.891 increase 
10 Banks      major_coal         45.2     39.1     -6.12  decrease 
# ℹ 446 more rows
…
Demographic deep dive

## Selecting an Electorate with Significant Voting Shift
# Exploratory analysis

electorate_change |>
  filter(PartyType == "minor_or_indep") |>
  arrange(desc(pct_change)) |>
  print(n = 20)

# A tibble: 152 × 6
   DivisionNm PartyType      pct_2022 pct_2025 pct_change trend_dir
   <chr>      <chr>             <dbl>    <dbl>      <dbl> <chr>    
 1 Calare     minor_or_indep     37.2     59.9      22.7  increase 
 2 Calwell    minor_or_indep     31.5     53.8      22.3  increase 
 3 Blaxland   minor_or_indep     18.0     34.4      16.4  increase 
 4 Watson     minor_or_indep     21.6     36.8      15.2  increase 
 5 Paterson   minor_or_indep     22.6     35.7      13.1  increase 
 6 Farrer     minor_or_indep     28.8     41.5      12.7  increase 
 7 Forrest    minor_or_indep     29.4     41.5      12.0  increase 
 8 Monash     minor_or_indep     36.6     47.9      11.3  increase 
 9 Fremantle  minor_or_indep     31.8     42.5      10.7  increase 
10 Moore      minor_or_indep     25.4     36.0      10.6  increase 
11 Parkes     minor_or_indep     30.5     40.4       9.91 increase 
12 Wannon     minor_or_indep     36.4     45.8       9.36 increase 
13 Lyne       minor_or_indep     35.0     43.9       8.92 increase 
14 Burt       minor_or_indep     25.4     34.1       8.71 increase 
15 Riverina   minor_or_indep     33.0     41.2       8.29 increase 
16 Fisher     minor_or_indep     32.4     40.5       8.09 increase 
17 Flynn      minor_or_indep     29.6     37.5       7.93 increase 
18 Wills      minor_or_indep     43.8     51.5       7.71 increase 
19 Makin      minor_or_indep     22.3     29.7       7.43 increase 
20 Bean       minor_or_indep     28.6     35.9       7.36 increase 
# ℹ 132 more rows

electorate_change |>
  filter(PartyType == "major_coal") |>
  arrange(pct_change) |>
  print(n = 20)

# A tibble: 152 × 6
   DivisionNm PartyType  pct_2022 pct_2025 pct_change trend_dir
   <chr>      <chr>         <dbl>    <dbl>      <dbl> <chr>    
 1 Calare     major_coal     47.7     29.7     -18.0  decrease 
 2 Braddon    major_coal     44.1     31.7     -12.4  decrease 
 3 Watson     major_coal     26.5     15.2     -11.4  decrease 
 4 Hasluck    major_coal     33.4     22.2     -11.2  decrease 
 5 Lyons      major_coal     37.2     26.2     -11.0  decrease 
 6 Moore      major_coal     41.8     31.4     -10.4  decrease 
 7 Hindmarsh  major_coal     32.7     23.1      -9.59 decrease 
 8 Robertson  major_coal     40.0     30.4      -9.58 decrease 
 9 Paterson   major_coal     36.7     27.2      -9.45 decrease 
10 Leichhardt major_coal     36.7     27.3      -9.44 decrease 
11 Parkes     major_coal     49.3     40.0      -9.36 decrease 
12 Bonner     major_coal     44.8     35.5      -9.34 decrease 
13 Rankin     major_coal     29.0     19.7      -9.26 decrease 
14 Hunter     major_coal     27.4     18.2      -9.25 decrease 
15 Wright     major_coal     43.2     34.1      -9.13 decrease 
16 Makin      major_coal     31.4     22.5      -8.95 decrease 
17 Farrer     major_coal     52.3     43.4      -8.85 decrease 
18 Sturt      major_coal     43.1     34.3      -8.80 decrease 
19 Bass       major_coal     39.7     31.4      -8.29 decrease 
20 Calwell    major_coal     23.7     15.7      -7.96 decrease 
# ℹ 132 more rows
…
